{
  "kind": "collectionType",
  "collectionName": "contacts",
  "info": {
    "name": "Contact",
    "description": ""
  },
  "options": {
    "increments": true,
    "timestamps": true,
    "draftAndPublish": true
  },
  "pluginOptions": {},
  "attributes": {
    "question": {
      "type": "string",
      "required": true
    },
    "source": {
      "type": "enumeration",
      "enum": [
        "apps",
        "booths"
      ],
      "required": true
    },
    "email": {
      "type": "email"
    },
    "phone": {
      "type": "string"
    }
  }
}
