{
  "collectionName": "components_shared_type_of_foods",
  "info": {
    "name": "Type of food",
    "icon": "apple-alt"
  },
  "options": {},
  "attributes": {
    "typeOfFood": {
      "type": "enumeration",
      "enum": [
        "local",
        "korean",
        "italian"
      ],
      "required": true
    }
  }
}
