{
  "collectionName": "components_booths_booths",
  "info": {
    "icon": "map-marked-alt",
    "displayName": "Booths"
  },
  "options": {},
  "attributes": {
    "region": {
      "type": "string",
      "required": true
    },
    "city": {
      "type": "string",
      "required": true
    },
    "address": {
      "type": "string",
      "required": true
    },
    "employees": {
      "type": "enumeration",
      "enum": [
        "upTo50",
        "upTo100",
        "upTo200",
        "upTo500",
        "over500"
      ],
      "required": true
    }
  }
}
