{
  "kind": "collectionType",
  "collectionName": "apps",
  "info": {
    "singularName": "app",
    "pluralName": "apps",
    "displayName": "App",
    "name": "app"
  },
  "options": {
    "increments": true,
    "timestamps": true,
    "draftAndPublish": false
  },
  "attributes": {
    "logo": {
      "type": "media",
      "allowedTypes": [
        "files",
        "images",
        "videos"
      ],
      "multiple": true,
      "required": true
    },
    "isOrderReadyWithinTwentyMinutes": {
      "type": "boolean",
      "required": true,
      "default": false
    },
    "agreeToPlaceSign": {
      "type": "boolean",
      "required": true,
      "default": false
    },
    "basicForm": {
      "type": "component",
      "repeatable": false,
      "component": "shared.basic-form",
      "required": false
    },
    "fullname": {
      "type": "string",
      "required": false
    },
    "email": {
      "type": "email"
    },
    "mobile": {
      "type": "string"
    },
    "nationalId": {
      "type": "string"
    },
    "nationalIdExpirationDate": {
      "type": "date"
    },
    "region": {
      "type": "string"
    },
    "city": {
      "type": "string"
    },
    "district": {
      "type": "string"
    },
    "healthCertificateNumber": {
      "type": "string"
    },
    "healthCertificateExpirationDate": {
      "type": "date"
    },
    "healthCertificateFile": {
      "type": "media",
      "allowedTypes": [
        "files",
        "images",
        "videos"
      ],
      "multiple": true,
      "required": false
    },
    "foodTypes": {
      "type": "json"
    },
    "foodOtherCategories": {
      "type": "string"
    }
  }
}
