{
  "kind": "collectionType",
  "collectionName": "booth_companies",
  "info": {
    "singularName": "booth-company",
    "pluralName": "booth-companies",
    "displayName": "Booth-company",
    "name": "booth-company"
  },
  "options": {
    "increments": true,
    "timestamps": true,
    "draftAndPublish": false
  },
  "attributes": {
    "businessName": {
      "type": "string",
      "required": true
    },
    "fullname": {
      "type": "string",
      "required": true
    },
    "email": {
      "type": "email",
      "required": true
    },
    "mobileNumber": {
      "type": "string",
      "required": true
    },
    "booths": {
      "type": "component",
      "repeatable": true,
      "component": "booths.booths",
      "max": 10,
      "min": 1,
      "required": false
    },
    "boothsCount": {
      "type": "integer",
      "default": 1,
      "max": 10,
      "min": 1,
      "required": false
    }
  }
}
