{
  "kind": "collectionType",
  "collectionName": "home_based_businesses",
  "info": {
    "singularName": "home-based-business",
    "pluralName": "home-based-businesses",
    "displayName": "Home-based-business",
    "name": "home-based-business"
  },
  "options": {
    "increments": true,
    "timestamps": true,
    "draftAndPublish": false
  },
  "attributes": {
    "basicForm": {
      "type": "component",
      "repeatable": false,
      "component": "shared.basic-form",
      "required": false
    },
    "fullname": {
      "type": "string"
    },
    "email": {
      "type": "email"
    },
    "mobile": {
      "type": "string"
    },
    "nationalId": {
      "type": "string"
    },
    "nationalIdExpirationDate": {
      "type": "date"
    },
    "region": {
      "type": "string"
    },
    "city": {
      "type": "string"
    },
    "district": {
      "type": "string"
    },
    "healthCertificateNumber": {
      "type": "string"
    },
    "healthCertificateExpirationDate": {
      "type": "date"
    },
    "healthCertificateFile": {
      "type": "media",
      "allowedTypes": [
        "images",
        "files",
        "videos"
      ],
      "multiple": true,
      "required": false
    },
    "foodTypes": {
      "type": "json"
    },
    "foodOtherCategories": {
      "type": "string"
    }
  }
}
