{
  "routes": [
    {
      "method": "GET",
      "path": "/booth-companies",
      "handler": "booth-company.find",
      "config": {
        "policies": []
      }
    },
    {
      "method": "GET",
      "path": "/booth-companies/count",
      "handler": "booth-company.count",
      "config": {
        "policies": []
      }
    },
    {
      "method": "GET",
      "path": "/booth-companies/:id",
      "handler": "booth-company.findOne",
      "config": {
        "policies": []
      }
    },
    {
      "method": "POST",
      "path": "/booth-companies",
      "handler": "booth-company.create",
      "config": {
        "policies": []
      }
    },
    {
      "method": "PUT",
      "path": "/booth-companies/:id",
      "handler": "booth-company.update",
      "config": {
        "policies": []
      }
    },
    {
      "method": "DELETE",
      "path": "/booth-companies/:id",
      "handler": "booth-company.delete",
      "config": {
        "policies": []
      }
    }
  ]
}
